{
  "menus": [
    {
      "id": "security",
      "title": "Security",
      "report": "security.txt"
    },
    {
      "id": "phpunit_unit",
      "title": "PHPunit: Unit - Kernel",
      "report": "phpunit.html"
    },
    {
      "id": "phpunit_unit",
      "title": "PHPunit: Coverage",
      "report": "coverage-html/index.html"
    },
    {
      "id": "phpunit_func",
      "title": "PHPunit: Functional",
      "report": "phpunit.html"
    },
    {
      "id": "phpunit_funcjs",
      "title": "PHPunit: Functional Js",
      "report": "phpunit.html"
    },
    {
      "id": "metrics",
      "title": "Metrics: Phpmetrics",
      "report": "phpmetrics/index.html"
    },
    {
      "id": "metrics",
      "title": "Metrics: Phploc",
      "report": "phploc.html"
    },
    {
      "id": "metrics",
      "title": "Metrics: Pdepend",
      "report": "pdepend.html"
    },
    {
      "id": "php-qa",
      "title": "QA: Phpcpd",
      "report": "phpcpd.html"
    },
    {
      "id": "php-qa",
      "title": "QA: Phpcs",
      "report": "phpcs.html"
    },
    {
      "id": "php-qa",
      "title": "QA: Phpmd",
      "report": "phpmd.html"
    },
    {
      "id": "php-qa",
      "title": "QA: Phpstan",
      "report": "phpstan.html"
    },
    {
      "id": "lint_js",
      "title": "Lint: Javascript",
      "report": "eslint.html"
    },
    {
      "id": "lint_yaml",
      "title": "Lint: Yaml",
      "report": "eslint.html"
    },
    {
      "id": "lint_css",
      "title": "Lint: Css",
      "report": "stylelint.html"
    },
    {
      "id": "lint_twig",
      "title": "Lint: Twig",
      "report": "lint_twig.txt"
    },
    {
      "id": "nightwatchjs",
      "title": "Nightwatch",
      "report": "nightwatch.html"
    },
    {
      "id": "behat",
      "title": "Behat",
      "report": "index.html"
    },
    {
      "id": "accessibility_pa11y",
      "title": "Pa11y",
      "report": "index.html"
    }
  ]
}
